STAT545_hmk2_WilliamHall
…
Show me your PIPES

So what if we wanted to compare the mean GDP for countries in Africa with life expectancy.

This first set of code will create a new data set that will provide the mean life expectancy for each country in Africa as well as its GPD per capita.

gapminder %>% 
    filter(continent == "Africa") %>% 
    group_by(country) %>% 
    summarize(Mean.Life = mean(lifeExp), GDP = mean(gdpPercap))

## # A tibble: 52 x 3
##    country                  Mean.Life   GDP
##    <fct>                        <dbl> <dbl>
##  1 Algeria                       59.0 4426.
##  2 Angola                        37.9 3607.
##  3 Benin                         48.8 1155.
##  4 Botswana                      54.6 5032.
##  5 Burkina Faso                  44.7  844.
##  6 Burundi                       44.8  472.
##  7 Cameroon                      48.1 1775.
##  8 Central African Republic      43.9  959.
##  9 Chad                          46.8 1165.
## 10 Comoros                       52.4 1314.
## # ... with 42 more rows
…
